Angle Learning Comprehension analysis
…
## named integer(0)

No

Accuracy analysis

Check participant accuracy:

First calculate accuracy per participant and per session:

ppt_acc_S1 <- filter(angleLearn, Session == 1) %>% group_by(Subject) %>% 
     summarize(ACC = mean(ACC))
ppt_acc_S1

## # A tibble: 60 x 2
##    Subject   ACC
##    <fct>   <dbl>
##  1 101     0.885
##  2 102     0.927
##  3 103     0.958
##  4 104     0.896
##  5 105     0.885
##  6 106     0.958
##  7 107     0.729
##  8 108     0.938
##  9 109     0.854
## 10 110     0.781
## # ... with 50 more rows

ppt_acc_S2 <- filter(angleLearn, Session == 2) %>% group_by(Subject) %>% 
     summarize(ACC = mean(ACC))
ppt_acc_S2

## # A tibble: 60 x 2
##    Subject   ACC
##    <fct>   <dbl>
##  1 101     0.833
##  2 102     0.781
##  3 103     0.635
##  4 104     0.552
##  5 105     0.698
##  6 106     0.896
##  7 107     0.552
##  8 108     0.812
##  9 109     0.646
## 10 110     0.656
## # ... with 50 more rows
…
3 participants had <70% accuracy at Session 1.

Exclude these participants from further analysis:

#angleLearn <- filter(angleLearn, ExclPpt != 1)
#angleLearn

Check item accuracy:

First calculate accuracy per item and per session:

item_acc_S1 <- filter(angleLearn, Session == 1) %>% group_by(Sign) %>% summarize(ACC = mean(ACC))
item_acc_S1

## # A tibble: 96 x 2
##    Sign        ACC
##    <chr>     <dbl>
##  1 ALARM     0.633
##  2 ANIMAL    0.967
##  3 BABY      1    
##  4 BADMINTON 0.95 
##  5 BANDAGE   0.983
##  6 BANK      0.533
##  7 BEANS     0.533
##  8 BED       1    
##  9 BEEF      0.633
## 10 BELT      1    
## # ... with 86 more rows

item_acc_S2 <- filter(angleLearn, Session == 2) %>% group_by(Sign) %>% summarize(ACC = mean(ACC))
item_acc_S2

## # A tibble: 96 x 2
##    Sign        ACC
##    <chr>     <dbl>
##  1 ALARM     0.217
##  2 ANIMAL    0.783
##  3 BABY      1    
##  4 BADMINTON 0.867
##  5 BANDAGE   0.9  
##  6 BANK      0.35 
##  7 BEANS     0.15 
##  8 BED       0.617
##  9 BEEF      0.433
## 10 BELT      1    
## # ... with 86 more rows
…
## Error in eval(expr, envir, enclos): object 'type2.ACC' not found

anova(type2.ACC)

## Error in anova(type2.ACC): object 'type2.ACC' not found

Iconicity Acc analysis

Filter out signs with no iconicity ratings:

iconicityACC <- filter(angleLearn, Icon != 0)
iconicityACC

## # A tibble: 9,000 x 18
##    Version Subject Session BlockOrder TestAngle Trial  Item Condition Sign 
##    <fct>   <fct>   <fct>        <dbl> <chr>     <dbl> <dbl> <fct>     <chr>
##  1 V1      205     1                4 45L          59    13 both      HELI~
##  2 V3      217     2                4 45L          60    48 front     PARE~
##  3 V2      320     1                3 45L          35    71 both      ALARM
##  4 V1      102     1                3 45L          45     5 both      LIGH~
##  5 V2      214     2                4 45L          75    67 front     FLAG 
##  6 V1      203     1                3 45L          40    12 front     BOTT~
##  7 V2      319     2                5 45L          89    45 side      GRAP~
##  8 V2      405     1                4 45L          74     2 side      DRILL
##  9 V3      311     1                5 45L          86     7 side      SCIS~
## 10 V2      207     2                5 45L          95    18 both      BABY 
## # ... with 8,990 more rows, and 9 more variables: Icon <dbl>, Type <fct>,
## #   ACC <dbl>, Error <dbl>, RT <dbl>, RTchecked <dbl>, ExclItem <dbl>,
## #   ExclPpt <dbl>, ExclSlowFast <dbl>
…
## Error in eval(expr, envir, enclos): object 'icon2.ACC' not found

anova(icon2.ACC)

## Error in anova(icon2.ACC): object 'icon2.ACC' not found

RT analysis

Exclude any inaccurate trials:

angleLearnRT <- filter(angleLearn,
             ACC == 1)
angleLearnRT

## # A tibble: 8,971 x 18
##    Version Subject Session BlockOrder TestAngle Trial  Item Condition Sign 
##    <fct>   <fct>   <fct>        <dbl> <chr>     <dbl> <dbl> <fct>     <chr>
##  1 V1      205     1                4 45L          59    13 both      HELI~
##  2 V1      102     1                3 45L          45     5 both      LIGH~
##  3 V2      214     2                4 45L          75    67 front     FLAG 
##  4 V1      104     1                5 45L          93    91 side      BADM~
##  5 V1      203     1                3 45L          40    12 front     BOTT~
##  6 V3      311     1                5 45L          86     7 side      SCIS~
##  7 V2      207     2                5 45L          95    18 both      BABY 
##  8 V1      105     2                4 45L          59    23 side      CROC~
##  9 V2      409     1                5 45L          81    63 front     BEANS
## 10 V2      317     1                3 45L          41     5 side      LIGH~
## # ... with 8,961 more rows, and 9 more variables: Icon <dbl>, Type <fct>,
## #   ACC <dbl>, Error <dbl>, RT <dbl>, RTchecked <dbl>, ExclItem <dbl>,
## #   ExclPpt <dbl>, ExclSlowFast <dbl>
…
416 trials were excluded for outlying RTs.

Are any participants particularly fast or slow? (M +/- 2SD)

First calculate mean RT per participant per session:

ppt_rt_S1 <- filter(angleLearnRT, Session == 1) %>% group_by(Subject) %>% 
     summarize(RT = mean(RT))
ppt_rt_S1

## # A tibble: 60 x 2
##    Subject    RT
##    <fct>   <dbl>
##  1 101     2095.
##  2 102     1758.
##  3 103     1841.
##  4 104     1812.
##  5 105     1682.
##  6 106     1833.
##  7 107     1940.
##  8 108     1702.
##  9 109     2019.
## 10 110     2031.
## # ... with 50 more rows

ppt_rt_S2 <- filter(angleLearnRT, Session == 2) %>% group_by(Subject) %>% 
     summarize(RT = mean(RT))
ppt_rt_S2

## # A tibble: 60 x 2
##    Subject    RT
##    <fct>   <dbl>
##  1 101     2192.
##  2 102     2094.
##  3 103     2107.
##  4 104     2148.
##  5 105     2019.
##  6 106     1959.
##  7 107     2187.
##  8 108     2163.
##  9 109     2375.
## 10 110     2288.
## # ... with 50 more rows
…
## # A tibble: 2 x 2
##   Session   sd2
##   <fct>   <dbl>
## 1 1        892.
## 2 2       1035.

No participants have mean RTs at either session +/- 2SDs of the Session mean RT; none were excluded

Were any items particularly fast or slow?

item_rt_S1 <- filter(angleLearnRT, Session == 1) %>% group_by(Sign) %>% 
     summarize(RT = mean(RT))
item_rt_S1

## # A tibble: 96 x 2
##    Sign         RT
##    <chr>     <dbl>
##  1 ALARM     2195.
##  2 ANIMAL    1716.
##  3 BABY      1431.
##  4 BADMINTON 2030.
##  5 BANDAGE   1570.
##  6 BANK      2353.
##  7 BEANS     2171.
##  8 BED       1687.
##  9 BEEF      2253.
## 10 BELT      1491.
## # ... with 86 more rows

item_rt_S2 <- filter(angleLearnRT, Session == 2) %>% group_by(Sign) %>% 
     summarize(RT = mean(RT))
item_rt_S2

## # A tibble: 96 x 2
##    Sign         RT
##    <chr>     <dbl>
##  1 ALARM     2523.
##  2 ANIMAL    2185.
##  3 BABY      1690.
##  4 BADMINTON 2328.
##  5 BANDAGE   2071.
##  6 BANK      2401.
##  7 BEANS     2456.
##  8 BED       2321.
##  9 BEEF      2521.
## 10 BELT      1844.
## # ... with 86 more rows
…
Iconicity RT analysis

Filter out signs with no iconicity ratings:

iconicityRT <- filter(angleLearnRT, Icon != 0)
iconicityRT

## # A tibble: 7,097 x 18
##    Version Subject Session BlockOrder TestAngle Trial  Item Condition Sign 
##    <fct>   <fct>   <fct>        <dbl> <chr>     <dbl> <dbl> <fct>     <chr>
##  1 V1      205     1                4 45L          59    13 both      HELI~
##  2 V1      102     1                3 45L          45     5 both      LIGH~
##  3 V2      214     2                4 45L          75    67 front     FLAG 
##  4 V1      203     1                3 45L          40    12 front     BOTT~
##  5 V3      311     1                5 45L          86     7 side      SCIS~
##  6 V2      207     2                5 45L          95    18 both      BABY 
##  7 V1      105     2                4 45L          59    23 side      CROC~
##  8 V2      317     1                3 45L          41     5 side      LIGH~
##  9 V3      218     2                2 45L          22    46 both      GRASS
## 10 V3      310     1                5 45L          85    38 both      PERS~
## # ... with 7,087 more rows, and 9 more variables: Icon <dbl>, Type <fct>,
## #   ACC <dbl>, Error <dbl>, RT <dbl>, RTchecked <dbl>, ExclItem <dbl>,
## #   ExclPpt <dbl>, ExclSlowFast <dbl>
…
By-subject plots

Calculate by-subject accuracy averages by condition and session:

ppt_acc <- angleLearn %>% group_by(Subject, Session, Condition) %>% 
     summarize(ACC = mean(ACC))
ppt_acc

## # A tibble: 360 x 4
## # Groups:   Subject, Session [120]
##    Subject Session Condition   ACC
##    <fct>   <fct>   <fct>     <dbl>
##  1 101     1       both      0.906
##  2 101     1       front     0.844
##  3 101     1       side      0.906
##  4 101     2       both      0.844
##  5 101     2       front     0.75 
##  6 101     2       side      0.906
##  7 102     1       both      0.969
##  8 102     1       front     0.875
##  9 102     1       side      0.938
## 10 102     2       both      0.812
## # ... with 350 more rows

Calculate by-subject RT averages by condition and session:

ppt_rt <- angleLearnRT %>% group_by(Subject, Session, Condition) %>% 
     summarize(RT = mean(RT))
ppt_rt

## # A tibble: 360 x 4
## # Groups:   Subject, Session [120]
##    Subject Session Condition    RT
##    <fct>   <fct>   <fct>     <dbl>
##  1 101     1       both      2111.
##  2 101     1       front     2107.
##  3 101     1       side      2067.
##  4 101     2       both      2171.
##  5 101     2       front     2190 
##  6 101     2       side      2214.
##  7 102     1       both      1686.
##  8 102     1       front     1897.
##  9 102     1       side      1704.
## 10 102     2       both      2035.
## # ... with 350 more rows
…
Mental Rotation analysis

Load mental rotation data:

mr_data <- read_csv("2019-07-10 AngleLearningMRData.csv")

mr_data <- filter(mr_data, type != "PRACTICE")
mr_data <- rename(mr_data, Subject = subNum)
mr_data$Subject <- as.factor(mr_data$Subject)
mr_data

## # A tibble: 7,680 x 9
##    Subject type  trialnum  cond stimid   rot resp        cor    rt
##    <fct>   <chr>    <dbl> <dbl>  <dbl> <dbl> <chr>     <dbl> <dbl>
##  1 101     TEST         1     1      2    -2 <TIMEOUT>     0  3001
##  2 101     TEST         2     1      2     1 <TIMEOUT>     0  3001
##  3 101     TEST         3     1      1     3 <TIMEOUT>     0  3001
##  4 101     TEST         4     0      2     1 <LSHIFT>      1  2580
##  5 101     TEST         5     1      1     2 <RSHIFT>      1  2007
##  6 101     TEST         6     0      1     2 <LSHIFT>      1  2062
##  7 101     TEST         7     1      2     4 <RSHIFT>      1  1670
##  8 101     TEST         8     1      1     4 <TIMEOUT>     0  3001
##  9 101     TEST         9     0      1     2 <LSHIFT>      1  2516
## 10 101     TEST        10     1      2     1 <RSHIFT>      1  1502
## # ... with 7,670 more rows
…
Summarise accuracy per subject:

mr_Acc <- mr_data %>% group_by(Subject) %>% 
  summarise(MR_ACC = mean(cor))
print(mr_Acc)

## # A tibble: 60 x 2
##    Subject MR_ACC
##    <fct>    <dbl>
##  1 101      0.891
##  2 102      0.844
##  3 103      0.742
##  4 104      0.656
##  5 105      0.695
##  6 106      0.664
##  7 107      0.695
##  8 108      0.742
##  9 109      0.727
## 10 110      0.820
## # ... with 50 more rows

RT responses

Filter out incorrect trials:

mr_RT_data <- filter(mr_data, cor == 1)
mr_RT_data

## # A tibble: 5,478 x 9
##    Subject type  trialnum  cond stimid   rot resp       cor    rt
##    <fct>   <chr>    <dbl> <dbl>  <dbl> <dbl> <chr>    <dbl> <dbl>
##  1 101     TEST         4     0      2     1 <LSHIFT>     1  2580
##  2 101     TEST         5     1      1     2 <RSHIFT>     1  2007
##  3 101     TEST         6     0      1     2 <LSHIFT>     1  2062
##  4 101     TEST         7     1      2     4 <RSHIFT>     1  1670
##  5 101     TEST         9     0      1     2 <LSHIFT>     1  2516
##  6 101     TEST        10     1      2     1 <RSHIFT>     1  1502
##  7 101     TEST        11     1      1     2 <RSHIFT>     1  2230
##  8 101     TEST        12     0      1    -1 <LSHIFT>     1  1575
##  9 101     TEST        13     0      2    -3 <LSHIFT>     1  1976
## 10 101     TEST        14     1      1     3 <RSHIFT>     1  2232
## # ... with 5,468 more rows

Filter out reaction times below 500ms:

mr_RT_data <- filter(mr_RT_data, rt > 500)
mr_RT_data

## # A tibble: 5,412 x 9
##    Subject type  trialnum  cond stimid   rot resp       cor    rt
##    <fct>   <chr>    <dbl> <dbl>  <dbl> <dbl> <chr>    <dbl> <dbl>
##  1 101     TEST         4     0      2     1 <LSHIFT>     1  2580
##  2 101     TEST         5     1      1     2 <RSHIFT>     1  2007
##  3 101     TEST         6     0      1     2 <LSHIFT>     1  2062
##  4 101     TEST         7     1      2     4 <RSHIFT>     1  1670
##  5 101     TEST         9     0      1     2 <LSHIFT>     1  2516
##  6 101     TEST        10     1      2     1 <RSHIFT>     1  1502
##  7 101     TEST        11     1      1     2 <RSHIFT>     1  2230
##  8 101     TEST        12     0      1    -1 <LSHIFT>     1  1575
##  9 101     TEST        13     0      2    -3 <LSHIFT>     1  1976
## 10 101     TEST        14     1      1     3 <RSHIFT>     1  2232
## # ... with 5,402 more rows

Summarise RT per subject of correct trials:

mr_RT <- mr_RT_data %>% group_by(Subject) %>% 
  summarise(MR_RT = mean(rt))
print(mr_RT)

## # A tibble: 60 x 2
##    Subject MR_RT
##    <fct>   <dbl>
##  1 101     1780.
##  2 102     1606.
##  3 103     1308.
##  4 104     1617.
##  5 105     1408.
##  6 106     1446.
##  7 107     1490.
##  8 108     1254.
##  9 109     2093.
## 10 110     1529.
## # ... with 50 more rows

Bind BSL & MR tibbles:

AccS1Corr<- bind_cols(mr_Acc, ppt_acc_S1)
print(AccS1Corr)

## # A tibble: 60 x 4
##    Subject MR_ACC Subject1   ACC
##    <fct>    <dbl> <fct>    <dbl>
##  1 101      0.891 101      0.885
##  2 102      0.844 102      0.927
##  3 103      0.742 103      0.958
##  4 104      0.656 104      0.896
##  5 105      0.695 105      0.885
##  6 106      0.664 106      0.958
##  7 107      0.695 107      0.729
##  8 108      0.742 108      0.938
##  9 109      0.727 109      0.854
## 10 110      0.820 110      0.781
## # ... with 50 more rows

AccS2Corr<- bind_cols(mr_Acc, ppt_acc_S2)
print(AccS2Corr)

## # A tibble: 60 x 4
##    Subject MR_ACC Subject1   ACC
##    <fct>    <dbl> <fct>    <dbl>
##  1 101      0.891 101      0.833
##  2 102      0.844 102      0.781
##  3 103      0.742 103      0.635
##  4 104      0.656 104      0.552
##  5 105      0.695 105      0.698
##  6 106      0.664 106      0.896
##  7 107      0.695 107      0.552
##  8 108      0.742 108      0.812
##  9 109      0.727 109      0.646
## 10 110      0.820 110      0.656
## # ... with 50 more rows

RTS1Corr <- bind_cols(mr_RT, ppt_rt_S1)
print(RTS1Corr)

## # A tibble: 60 x 4
##    Subject MR_RT Subject1    RT
##    <fct>   <dbl> <fct>    <dbl>
##  1 101     1780. 101      2095.
##  2 102     1606. 102      1758.
##  3 103     1308. 103      1841.
##  4 104     1617. 104      1812.
##  5 105     1408. 105      1682.
##  6 106     1446. 106      1833.
##  7 107     1490. 107      1940.
##  8 108     1254. 108      1702.
##  9 109     2093. 109      2019.
## 10 110     1529. 110      2031.
## # ... with 50 more rows

RTS2Corr <- bind_cols(mr_RT, ppt_rt_S2)
print(RTS2Corr)

## # A tibble: 60 x 4
##    Subject MR_RT Subject1    RT
##    <fct>   <dbl> <fct>    <dbl>
##  1 101     1780. 101      2192.
##  2 102     1606. 102      2094.
##  3 103     1308. 103      2107.
##  4 104     1617. 104      2148.
##  5 105     1408. 105      2019.
##  6 106     1446. 106      1959.
##  7 107     1490. 107      2187.
##  8 108     1254. 108      2163.
##  9 109     2093. 109      2375.
## 10 110     1529. 110      2288.
## # ... with 50 more rows
…
