viewpoint graphs
…
Create loop that prints item accuracies with angles:

Create a table with accuracy and RT averages:

item_tab <- vp %>% filter(Difficulty != 'exclude') %>% 
  group_by(Sign, from0) %>% 
  summarize(ACC = mean(ACC),
            RT = mean(RT))
item_tab

## # A tibble: 604 x 4
## # Groups:   Sign [227]
##    Sign      from0   ACC    RT
##    <fct>     <int> <dbl> <dbl>
##  1 ALARM         0 1     1972.
##  2 ALARM        45 1     1873.
##  3 ALARM        90 0.956 1780.
##  4 AMBULANCE     0 0.826 1897.
##  5 AMBULANCE    45 0.873 1844.
##  6 ANIMAL        0 0.947 1929.
##  7 ANIMAL       45 0.933 1667.
##  8 ANIMAL       90 0.933 2062.
##  9 APPLE         0 1     1719.
## 10 APPLE        45 1     1718.
## # ... with 594 more rows
…
