Angle Processing analysis
…
Exclusions:

Discard practice trials

vp <- filter(vp,
             PrimeTarget != 'practice')

Exclude items with low accuracy (below 70% overall) Calculate accuracy per item:

item_acc <- vp %>% group_by(Sign) %>% 
     summarize(ACC = mean(ACC))
print(item_acc)

## # A tibble: 240 x 2
##    Sign        ACC
##    <fct>     <dbl>
##  1 AFTERNOON 0.622
##  2 ALARM     0.967
##  3 AMBULANCE 0.867
##  4 ANIMAL    0.944
##  5 APPLE     1    
##  6 BABY      0.989
##  7 BADMINTON 0.967
##  8 BALLOON   0.922
##  9 BANANA    0.978
## 10 BANDAGE   0.867
## # ... with 230 more rows
…
