BSL Angle Processing analysis
…
Exclusions:

Discard practice trials

vp <- filter(vp,
             PrimeTarget != 'practice')

Exclude items with low accuracy (below 70% overall) Calculate accuracy per item:

item_acc <- vp %>% group_by(Sign) %>% 
     summarize(ACC = mean(ACC))
print(item_acc)

## # A tibble: 240 x 2
##    Sign        ACC
##    <fct>     <dbl>
##  1 AFTERNOON 0.622
##  2 ALARM     0.967
##  3 AMBULANCE 0.867
##  4 ANIMAL    0.944
##  5 APPLE     1    
##  6 BABY      0.989
##  7 BADMINTON 0.967
##  8 BALLOON   0.922
##  9 BANANA    0.978
## 10 BANDAGE   0.867
## # ... with 230 more rows
…
vpAccTargets %>% group_by(Difficulty) %>% 
  summarize(ErrorRate = mean(ErrorRate))

## # A tibble: 3 x 2
##   Difficulty ErrorRate
##   <fct>          <dbl>
## 1 easier        0.0635
## 2 harder        0.0690
## 3 same          0.0675

vpAccPrimes %>% group_by(Subject) %>% 
  summarize(ErrorRate = mean(ErrorRate))

## # A tibble: 45 x 2
##    Subject ErrorRate
##    <fct>       <dbl>
##  1 S105       0.0573
##  2 S106       0.0529
##  3 S107       0.0264
##  4 S108       0.198 
##  5 S109       0.0441
##  6 S110       0.0529
##  7 S111       0.112 
##  8 S112       0.0837
##  9 S113       0.0573
## 10 S114       0.0178
## # ... with 35 more rows
…
7 subjects have <48 data points (S108, S110, S125, S126, S142, S143, S144) due to technical problems (experiment file crashing).

Exclude very fast (<500ms) or very slow (>10000ms) trials:

mr <- filter(mr, ExclSlow != 1)

Summarise the mean Accuracy & RT by Subject for the mental rotation task:

mrAcc <- mr %>% group_by(Group, Subject) %>% 
  summarize(MR_ACC = mean(ACC))
print(mrAcc)

## # A tibble: 45 x 3
## # Groups:   Group [4]
##    Group   Subject MR_ACC
##    <fct>   <fct>    <dbl>
##  1 L1_Deaf S105     0.417
##  2 L1_Deaf S106     0.958
##  3 L1_Deaf S107     0.958
##  4 L1_Deaf S109     0.75 
##  5 L1_Deaf S110     0.463
##  6 L1_Deaf S112     0.489
##  7 L1_Deaf S114     0.975
##  8 L1_Deaf S120     0.458
##  9 L1_Deaf S138     0.979
## 10 L1_Deaf S139     0.979
## # ... with 35 more rows

mrRT <- filter(mr, ACC == 1)
mrRT <- mrRT %>% group_by(Group, Subject) %>% 
  summarize(MR_RT = mean(RT))
print(mrRT)

## # A tibble: 45 x 3
## # Groups:   Group [4]
##    Group   Subject MR_RT
##    <fct>   <fct>   <dbl>
##  1 L1_Deaf S105     984.
##  2 L1_Deaf S106    3385.
##  3 L1_Deaf S107    1918.
##  4 L1_Deaf S109    3989.
##  5 L1_Deaf S110    2705.
##  6 L1_Deaf S112    3215.
##  7 L1_Deaf S114    4687.
##  8 L1_Deaf S120    3243.
##  9 L1_Deaf S138    4482.
## 10 L1_Deaf S139    2136.
## # ... with 35 more rows

There are around 13/45 subjects with accuracy between 40-60% suggesting they may have been guessing/didnt fully understand the task. I excluded these the first time I did this analysis but have left them in for now. Havent log transformed RTs here - not sure if should?

Summarise the mean Accuracy & RT by Subject for the BSL experiment (prime data only):

BSLAcc <- vpAccPrimes %>% group_by(Group, Subject) %>% 
  summarize(BSL_ACC = mean(ACC))
print(BSLAcc)

## # A tibble: 45 x 3
## # Groups:   Group [4]
##    Group   Subject BSL_ACC
##    <fct>   <fct>     <dbl>
##  1 L1_Deaf S105      0.943
##  2 L1_Deaf S106      0.947
##  3 L1_Deaf S107      0.974
##  4 L1_Deaf S109      0.956
##  5 L1_Deaf S110      0.947
##  6 L1_Deaf S112      0.916
##  7 L1_Deaf S114      0.982
##  8 L1_Deaf S120      0.974
##  9 L1_Deaf S138      0.947
## 10 L1_Deaf S139      0.969
## # ... with 35 more rows

BSLRT <- vpRTPrimes %>% group_by(Group, Subject) %>% 
  summarize(BSL_RT = mean(RT)) 
print(BSLRT)

## # A tibble: 45 x 3
## # Groups:   Group [4]
##    Group   Subject BSL_RT
##    <fct>   <fct>    <dbl>
##  1 L1_Deaf S105     1580.
##  2 L1_Deaf S106     1816.
##  3 L1_Deaf S107     1586.
##  4 L1_Deaf S109     1784.
##  5 L1_Deaf S110     1747.
##  6 L1_Deaf S112     1684.
##  7 L1_Deaf S114     1677.
##  8 L1_Deaf S120     1709.
##  9 L1_Deaf S138     1952.
## 10 L1_Deaf S139     1662.
## # ... with 35 more rows

Bind tibbles:

AccCorr<- bind_cols(mrAcc, BSLAcc)
print(AccCorr)

## # A tibble: 45 x 6
## # Groups:   Group [4]
##    Group   Subject MR_ACC Group1  Subject1 BSL_ACC
##    <fct>   <fct>    <dbl> <fct>   <fct>      <dbl>
##  1 L1_Deaf S105     0.417 L1_Deaf S105       0.943
##  2 L1_Deaf S106     0.958 L1_Deaf S106       0.947
##  3 L1_Deaf S107     0.958 L1_Deaf S107       0.974
##  4 L1_Deaf S109     0.75  L1_Deaf S109       0.956
##  5 L1_Deaf S110     0.463 L1_Deaf S110       0.947
##  6 L1_Deaf S112     0.489 L1_Deaf S112       0.916
##  7 L1_Deaf S114     0.975 L1_Deaf S114       0.982
##  8 L1_Deaf S120     0.458 L1_Deaf S120       0.974
##  9 L1_Deaf S138     0.979 L1_Deaf S138       0.947
## 10 L1_Deaf S139     0.979 L1_Deaf S139       0.969
## # ... with 35 more rows

RTCorr <- bind_cols(mrRT, BSLRT)
print(RTCorr)

## # A tibble: 45 x 6
## # Groups:   Group [4]
##    Group   Subject MR_RT Group1  Subject1 BSL_RT
##    <fct>   <fct>   <dbl> <fct>   <fct>     <dbl>
##  1 L1_Deaf S105     984. L1_Deaf S105      1580.
##  2 L1_Deaf S106    3385. L1_Deaf S106      1816.
##  3 L1_Deaf S107    1918. L1_Deaf S107      1586.
##  4 L1_Deaf S109    3989. L1_Deaf S109      1784.
##  5 L1_Deaf S110    2705. L1_Deaf S110      1747.
##  6 L1_Deaf S112    3215. L1_Deaf S112      1684.
##  7 L1_Deaf S114    4687. L1_Deaf S114      1677.
##  8 L1_Deaf S120    3243. L1_Deaf S120      1709.
##  9 L1_Deaf S138    4482. L1_Deaf S138      1952.
## 10 L1_Deaf S139    2136. L1_Deaf S139      1662.
## # ... with 35 more rows
…
Not sure if this is the right way to calculate the correlations! Again these values seem quite high but maybe because R not Rsquared.

Ive only looked at overall averages. In theory it would be possible to correlate by type of rotation e.g.45deg sign vs 50deg shape rotation, 90deg sign vs 100deg shape rotation but I dont think there are enough items (only a very short test). I wonder if it is worth reducing the data to just the conditions requiring rotation (ie. 45 & 90 for BSL; 50, 100, 150 for MR). We dont expect rotation to 0-degree signs, and there is no rotation required for two identical shapes.. So this correlation as is also has lots of non-rotation in the mix

In terms of interpreting the results, I would say that the RT correlation is of far more value than the Accuracy one, since the 3 fluent groups are performing at ceiling accuracy on the BSL task.

BSL task data per subject, 45 & 90 angles only:

BSLAccNo0 <- filter(vpAccPrimes, Angle != "0")
BSLAccNo0 <- BSLAccNo0 %>% group_by(Group, Subject) %>% 
  summarize(BSL_ACC = mean(ACC))
print(BSLAccNo0)

## # A tibble: 45 x 3
## # Groups:   Group [4]
##    Group   Subject BSL_ACC
##    <fct>   <fct>     <dbl>
##  1 L1_Deaf S105      0.942
##  2 L1_Deaf S106      0.936
##  3 L1_Deaf S107      0.977
##  4 L1_Deaf S109      0.953
##  5 L1_Deaf S110      0.936
##  6 L1_Deaf S112      0.919
##  7 L1_Deaf S114      0.977
##  8 L1_Deaf S120      0.965
##  9 L1_Deaf S138      0.936
## 10 L1_Deaf S139      0.959
## # ... with 35 more rows

BSLRTNo0 <- filter(vpRTPrimes, Angle != "0", ACC != 0)
BSLRTNo0 <- BSLRTNo0 %>% group_by(Group, Subject) %>% 
  summarize(BSL_RT = mean(RT))
print(BSLRTNo0)

## # A tibble: 45 x 3
## # Groups:   Group [4]
##    Group   Subject BSL_RT
##    <fct>   <fct>    <dbl>
##  1 L1_Deaf S105     1593.
##  2 L1_Deaf S106     1845.
##  3 L1_Deaf S107     1600.
##  4 L1_Deaf S109     1799.
##  5 L1_Deaf S110     1740.
##  6 L1_Deaf S112     1716.
##  7 L1_Deaf S114     1709.
##  8 L1_Deaf S120     1737.
##  9 L1_Deaf S138     1969.
## 10 L1_Deaf S139     1680.
## # ... with 35 more rows

MR task data per subject, 50, 100 & 150 rotations only:

mrAccNo0 <- filter(mr, Rotation != "0")
mrAccNo0 <- mrAccNo0 %>% group_by(Group, Subject) %>% 
  summarize(MR_ACC = mean(ACC))
print(mrAccNo0)

## # A tibble: 45 x 3
## # Groups:   Group [4]
##    Group   Subject MR_ACC
##    <fct>   <fct>    <dbl>
##  1 L1_Deaf S105     0.342
##  2 L1_Deaf S106     0.944
##  3 L1_Deaf S107     0.944
##  4 L1_Deaf S109     0.703
##  5 L1_Deaf S110     0.5  
##  6 L1_Deaf S112     0.571
##  7 L1_Deaf S114     0.966
##  8 L1_Deaf S120     0.485
##  9 L1_Deaf S138     0.973
## 10 L1_Deaf S139     0.969
## # ... with 35 more rows

mrRTNo0 <- filter(mr, Rotation != "0", ACC == 1)
mrRTNo0 <- mrRTNo0 %>% group_by(Group, Subject) %>% 
  summarize(MR_RT = mean(RT))
print(mrRTNo0)

## # A tibble: 45 x 3
## # Groups:   Group [4]
##    Group   Subject MR_RT
##    <fct>   <fct>   <dbl>
##  1 L1_Deaf S105     887.
##  2 L1_Deaf S106    3706.
##  3 L1_Deaf S107    2170.
##  4 L1_Deaf S109    4652.
##  5 L1_Deaf S110    2734 
##  6 L1_Deaf S112    3486.
##  7 L1_Deaf S114    5502.
##  8 L1_Deaf S120    3774.
##  9 L1_Deaf S138    4904.
## 10 L1_Deaf S139    2346.
## # ... with 35 more rows

Combine tibbles for no 0 data:

AccCorrNo0 <- bind_cols(mrAccNo0, BSLAccNo0)
print(AccCorrNo0)

## # A tibble: 45 x 6
## # Groups:   Group [4]
##    Group   Subject MR_ACC Group1  Subject1 BSL_ACC
##    <fct>   <fct>    <dbl> <fct>   <fct>      <dbl>
##  1 L1_Deaf S105     0.342 L1_Deaf S105       0.942
##  2 L1_Deaf S106     0.944 L1_Deaf S106       0.936
##  3 L1_Deaf S107     0.944 L1_Deaf S107       0.977
##  4 L1_Deaf S109     0.703 L1_Deaf S109       0.953
##  5 L1_Deaf S110     0.5   L1_Deaf S110       0.936
##  6 L1_Deaf S112     0.571 L1_Deaf S112       0.919
##  7 L1_Deaf S114     0.966 L1_Deaf S114       0.977
##  8 L1_Deaf S120     0.485 L1_Deaf S120       0.965
##  9 L1_Deaf S138     0.973 L1_Deaf S138       0.936
## 10 L1_Deaf S139     0.969 L1_Deaf S139       0.959
## # ... with 35 more rows

RTCorrNo0 <- bind_cols(mrRTNo0, BSLRTNo0)
print(RTCorrNo0)

## # A tibble: 45 x 6
## # Groups:   Group [4]
##    Group   Subject MR_RT Group1  Subject1 BSL_RT
##    <fct>   <fct>   <dbl> <fct>   <fct>     <dbl>
##  1 L1_Deaf S105     887. L1_Deaf S105      1593.
##  2 L1_Deaf S106    3706. L1_Deaf S106      1845.
##  3 L1_Deaf S107    2170. L1_Deaf S107      1600.
##  4 L1_Deaf S109    4652. L1_Deaf S109      1799.
##  5 L1_Deaf S110    2734  L1_Deaf S110      1740.
##  6 L1_Deaf S112    3486. L1_Deaf S112      1716.
##  7 L1_Deaf S114    5502. L1_Deaf S114      1709.
##  8 L1_Deaf S120    3774. L1_Deaf S120      1737.
##  9 L1_Deaf S138    4904. L1_Deaf S138      1969.
## 10 L1_Deaf S139    2346. L1_Deaf S139      1680.
## # ... with 35 more rows
…
